2022-10-17 Alex MS4A qPCR
…
df = read_csv("iMGL_iso_samples_combined_qPCR_clean.csv") %>% clean_names()

Rows: 240 Columns: 14
── Column specification ────────────────────────────────────────────────────────
Delimiter: ","
chr (5): Target Name, Genotype, Experiment, Cell_type, Treatment
dbl (9): avgCT, dCT, Line, mean_dCT, sd_dCT, se, ddCT, FC, log2FC

ℹ Use `spec()` to retrieve the full column specification for this data.
ℹ Specify the column types or set `show_col_types = FALSE` to quiet this message.

df

# A tibble: 240 × 14
   target_name genotype experiment avg_ct   d_ct  line cell_type treatment
   <chr>       <chr>    <chr>       <dbl>  <dbl> <dbl> <chr>     <chr>    
 1 MS4A4A      CC       1            24.5 -0.782  2607 iMGL      Basal    
 2 MS4A4A      CC       5            24.7 -1.87   2607 iMGL      Basal    
 3 MS4A4A      CC       6            24.5 -1.58   2607 iMGL      Basal    
 4 MS4A4A      CC       7            24.8 -1.26   2607 iMGL      Basal    
 5 MS4A4A      TT       1            24.4 -1.82   2607 iMGL      Basal    
 6 MS4A4A      TT       5            24.6 -1.71   2607 iMGL      Basal    
 7 MS4A4A      TT       6            24.7 -1.58   2607 iMGL      Basal    
 8 MS4A4A      TT       7            24.3 -1.87   2607 iMGL      Basal    
 9 MS4A6A      CC       1            21.7 -3.60   2607 iMGL      Basal    
10 MS4A6A      CC       5            21.8 -4.74   2607 iMGL      Basal    
   mean_d_ct sd_d_ct    se   dd_ct    fc  log2fc
       <dbl>   <dbl> <dbl>   <dbl> <dbl>   <dbl>
 1     -1.48   0.466 0.208  0.695  0.618 -0.695 
 2     -1.48   0.466 0.208 -0.393  1.31   0.393 
 3     -1.48   0.466 0.208 -0.0988 1.07   0.0988
 4     -1.48   0.466 0.208  0.215  0.862 -0.215 
 5     -1.48   0.466 0.208 -0.339  1.26   0.339 
 6     -1.48   0.466 0.208 -0.237  1.18   0.237 
 7     -1.48   0.466 0.208 -0.103  1.07   0.103 
 8     -1.48   0.466 0.208 -0.394  1.31   0.394 
 9     -4.36   0.439 0.196  0.754  0.593 -0.754 
10     -4.36   0.439 0.196 -0.385  1.31   0.385 
# … with 230 more rows
…
